<?xml version="1.0" standalone="no"?>
<!DOCTYPE svg PUBLIC "-//W3C//DTD SVG 1.1//EN" "http://www.w3.org/Graphics/SVG/1.1/DTD/svg11.dtd">
<svg xmlns="http://www.w3.org/2000/svg">
<metadata>Copyright (C) 2014 by original authors @ fontello.com</metadata>
<defs>
<font id="fontello" horiz-adv-x="1000" >
<font-face font-family="fontello" font-weight="400" font-stretch="normal" units-per-em="1000" ascent="850" descent="-150" />
<missing-glyph horiz-adv-x="1000" />
<glyph glyph-name="fuel" unicode="&#xe800;" d="m50 800c-28 0-50-22-50-50l0-800c0-25 25-50 50-50l450 0c25 0 50 25 50 50l0 250 25 0c25 0 25-25 25-25l0-100c0-50 25-75 75-75s75 25 75 75c0 58 0 225 0 275 0 50-100 100-100 150l0 150-50 0-50 50 0 50c0 28-22 50-50 50z m50-100l350 0 0-200-350 0z m450-150l50 0s0-42 0-75c0-50 100-100 100-150l0-250c0-25-25-25-25-25s-25 0-25 25c0 0 0 100 0 125 0 25-25 50-50 50-17 0-50 0-50 0z" horiz-adv-x="750" />
<glyph glyph-name="flight" unicode="&#xe801;" d="m0 259q-1 7 5 14l54 54q5 5 12 5 4 0 5 0l108-30 145 145-284 155q-8 5-9 14-1 9 5 15l71 71q8 7 17 5l371-89 89 89q43 42 96 60t83-6q24-29 7-83t-61-96l-90-90 90-388q3-11-7-19l-71-53q-4-3-11-3-2 0-4 0-8 2-12 9l-155 283-145-144 30-108q3-10-5-18l-53-53q-5-5-13-5h-1q-9 1-14 7l-105 141-141 105q-6 4-7 13z" horiz-adv-x="785.7" />
<glyph glyph-name="users-1" unicode="&#xe802;" d="m0 49q20 7 60 22t69 26 50 22q37 19 57 56t21 76q0 27-31 64-19 21-33 60-45 18-45 76 0 43 14 61-5 39-9 82-5 55 26 108t84 84 110 32q43 0 85-19t73-50 48-72 14-83q-4-55-8-82 14-19 14-61 0-58-45-76-15-41-32-60-32-37-32-64 0-39 20-76t58-56q29-15 92-38t113-43 66-38q18-17 28-47t10-51l1-21h-878v168z m705 299q0 34 12 50-5 32-7 67-4 45 21 89t69 72 90 27 89-27 69-72 22-89q-2-35-8-67 12-16 12-50 0-48-36-62-12-33-27-50-9-10-13-16t-9-16-4-20q0-32 17-62t47-46q17-9 42-19t60-22 50-19v-135h-254q0 4 0 11t-3 26-7 36-15 38-23 33q-23 25-53 44t-79 37q27 34 27 78 0 10-5 20t-8 16-12 16q-14 15-27 49-37 16-37 63z" horiz-adv-x="1201.2" />
<glyph glyph-name="cog-alt" unicode="&#xe803;" d="m0 299v103q0 6 4 11t9 6l86 14q7 19 18 42-19 27-50 64-4 6-4 11 0 7 4 12 12 16 46 49t44 33q6 0 12-4l64-50q19 10 43 18 6 60 13 86 3 13 16 13h104q6 0 11-4t6-10l13-85q19-6 41-17l66 49q5 4 11 4 7 0 12-4 81-75 81-90 0-5-4-10-7-9-24-30t-25-34q13-27 19-46l85-12q5-2 9-6t4-11v-103q0-6-4-11t-9-6l-86-14q-6-19-18-42 19-27 50-64 4-6 4-11 0-7-4-11-13-17-46-50t-44-33q-6 0-11 4l-64 50q-21-11-43-17-6-60-13-87-4-13-17-13h-104q-6 0-11 4t-5 10l-13 85q-19 6-42 18l-66-50q-4-4-11-4-6 0-12 4-80 75-80 90 0 5 4 10 5 8 23 30t26 34q-13 24-20 46l-85 13q-5 1-9 5t-4 11z m214 51q0-59 42-101t101-42 101 42 42 101-42 101-101 42-101-42-42-101z m429-325v78q0 9 83 18 7 16 17 29-29 63-29 77 0 2 3 4 2 1 19 11t33 19 17 9q4 0 25-26t29-38q12 1 17 1t17-1q28 40 51 63l4 1q2 0 69-39 2-2 2-4 0-14-28-77 9-13 16-29 83-9 83-18v-78q0-9-83-17-6-15-16-29 28-63 28-77 0-2-2-4-68-40-69-40-5 0-26 27t-29 37q-11-1-17-1t-17 1q-7-11-29-37t-25-27q-1 0-69 40-3 2-3 4 0 14 29 77-10 14-17 29-83 8-83 17z m0 572v78q0 9 83 17 7 16 17 29-29 63-29 77 0 2 3 4 2 1 19 11t33 19 17 9q4 0 25-26t29-38q12 2 17 2t17-2q28 40 51 63l4 1q2 0 69-39 2-2 2-4 0-14-28-77 9-13 16-29 83-8 83-17v-78q0-9-83-18-6-15-16-29 28-63 28-77 0-2-2-4-68-39-69-39-5 0-26 26t-29 38q-11-1-17-1t-17 1q-7-12-29-38t-25-26q-1 0-69 39-3 2-3 4 0 14 29 77-10 14-17 29-83 9-83 18z m143-533q0-29 21-50t50-21 51 21 21 50q0 29-22 51t-50 21-50-21-21-51z m0 572q0-30 21-51t50-21 51 21 21 51q0 29-22 50t-50 21-50-21-21-50z" horiz-adv-x="1071.4" />
<glyph glyph-name="user-1" unicode="&#xe804;" d="m0-119q0 9 1 23t11 47 27 49q17 17 68 38t115 43 93 38q38 19 59 56t20 76q0 27-32 63-33 38-53 102t-20 149q0 64 18 113t49 80 71 45 85 15 85-15 71-45 49-80 18-113q0-84-20-149t-52-102q-33-37-33-63 0-39 21-76t59-56q29-15 93-38t114-43 68-38q17-17 27-47t11-51l1-21h-1024z" horiz-adv-x="1024.9" />
<glyph glyph-name="home" unicode="&#xe805;" d="m15 348q0 8 6 12l401 334q18 15 42 15t43-15l136-114v109q0 8 5 13t13 5h107q8 0 13-5t5-13v-227l122-102q5-5 6-12t-4-13l-34-41q-5-5-12-7h-2q-7 0-12 4l-386 322-386-322q-7-4-13-4-7 2-12 7l-35 41q-4 5-3 13z m128-319v267q0 1 0 2t0 2l321 264 321-264q1-1 1-4v-267q0-15-11-26t-25-10h-214v214h-143v-214h-214q-15 0-25 10t-11 26z" horiz-adv-x="928.6" />
<glyph glyph-name="pencil" unicode="&#xe806;" d="m0-79v233l464 464 232-232-464-465h-232z m71 143h72v-71h60l50 51-131 131-51-51v-60z m95 143q0-12 13-12 5 0 9 4l303 302q3 4 3 10 0 12-12 12-5 0-9-4l-303-302q-4-4-4-10z m334 447l93 92q20 21 50 21 29 0 51-21l131-131q20-22 20-51 0-29-20-50l-93-93z" horiz-adv-x="857.1" />
<glyph glyph-name="circle-empty" unicode="&#xe807;" d="m0 350q0 117 58 215t155 156 216 58 215-58 156-156 57-215-57-215-156-156-215-58-216 58-155 156-58 215z m125 0q0-83 41-152t110-111 153-41 152 41 110 111 41 152-41 152-110 111-152 41-153-41-110-111-41-152z" horiz-adv-x="857.1" />
<glyph glyph-name="inbox" unicode="&#xe808;" d="m0 29v269q0 34 14 68l133 308q5 14 20 24t29 9h465q14 0 29-9t20-24l133-308q14-34 14-68v-269q0-15-10-26t-26-10h-785q-15 0-25 10t-11 26z m110 285h176l53-107h179l53 107h176q0 2-1 5t-2 4l-118 277h-395l-118-277q-1-1-2-4t-1-5z" horiz-adv-x="857.1" />
<glyph glyph-name="cancel" unicode="&#xe809;" d="m61 112q0 23 16 38l164 164-164 164q-16 16-16 38t16 38l76 76q16 16 38 16t38-16l164-164 164 164q16 16 38 16t38-16l76-76q15-15 15-38t-15-38l-164-164 164-164q15-15 15-38t-15-38l-76-76q-16-15-38-15t-38 15l-164 164-164-164q-16-15-38-15t-38 15l-76 76q-16 16-16 38z" horiz-adv-x="785.7" />
<glyph glyph-name="attention-circled" unicode="&#xe80a;" d="m0 350q0 117 58 215t155 156 216 58 215-58 156-156 57-215-57-215-156-156-215-58-216 58-155 156-58 215z m348 271l10-346q0-6 5-10t14-4h103q8 0 13 4t6 10l10 346q0 7-6 10-5 5-13 5h-123q-8 0-13-5-6-3-6-10z m9-538q0-8 6-13t13-6h107q7 0 12 6t5 13v106q0 8-5 13t-12 5h-107q-8 0-13-5t-6-13v-106z" horiz-adv-x="857.1" />
<glyph glyph-name="dot-circled" unicode="&#xe80b;" d="m0 350q0 117 58 215t155 156 216 58 215-58 156-156 57-215-57-215-156-156-215-58-216 58-155 156-58 215z m125 0q0-83 41-152t110-111 153-41 152 41 110 111 41 152-41 152-110 111-152 41-153-41-110-111-41-152z m161 0q0 59 42 101t101 42 101-42 41-101-41-101-101-42-101 42-42 101z" horiz-adv-x="857.1" />
<glyph glyph-name="flag-checkered" unicode="&#xe80c;" d="m36 707q0 30 21 51t50 21 51-21 21-51q0-19-10-36t-26-25v-707q0-8-5-13t-13-5h-36q-7 0-13 5t-5 13v707q-16 9-25 25t-10 36z m143-536v414q0 20 17 31 19 12 44 24t63 29 85 28 87 10q62 0 117-17t116-48q21-11 50-11 68 0 173 63 12 6 17 9 17 9 35-1 17-11 17-31v-425q0-22-20-32-5-3-9-5-122-65-206-65-49 0-88 20l-16 7q-35 19-55 27t-51 16-63 8q-57 0-132-24t-127-57q-9-5-19-5-9 0-18 4-17 11-17 31z m71 60q114 53 214 61v107q-101-9-214-65v-103z m0 228q120 62 214 66v110q-96-4-214-70v-106z m214-59h11q57 0 107-16t111-46q10-5 21-8v-105q24-9 51-9 67 0 164 51v103q-132-65-215-40v125q-11 3-21 8-3 2-19 10t-19 9-18 9-19 8-18 8-20 7-20 4-22 4-22 3-24 1q-13 0-28-2v-124z m250 55q83-24 215 50v106q-95-51-171-51-25 0-44 4v-109z" horiz-adv-x="1000" />
<glyph glyph-name="globe" unicode="&#xe80d;" d="m0 350q0 117 58 215t155 156 216 58 215-58 156-156 57-215-57-215-156-156-215-58-216 58-155 156-58 215z m126 189q4-4 7-4 2-1 3-5t1-6 6 1q5-4 2-10 1 0 25-15 10-10 11-12 2-6-5-10-1 1-5 5t-5 2q-2-3 0-10t6-7q-4 0-5-9t-2-20 0-13l1-1q-2-6 3-19t12-11q-7-1 11-24 3-4 4-5 2-1 7-4t9-6 5-5q2-3 6-13t8-13q-2-3 5-11t6-13q-1 0-2-1t-1 0q2-4 9-8t8-7q1-2 1-6t2-6 4-1q2 11-13 34-8 14-9 17-2 2-4 8t-2 8q1 0 3 0t5-2 4-3 1-1q-1-4 1-10t7-10 10-11 6-7q4-4 8-11t0-8q5 0 11-5t10-11q3-5 4-15t3-13q1-4 5-8t7-5l9-5t7-3q3-2 10-6t12-7q6-2 9-2t8 1 8 2q8 1 16-8t12-12q20-10 30-6-1 0 1-4t4-9 5-8 3-5q3-3 10-8t10-8q4 2 4 5-1-5 4-11t10-6q8 2 8 18-17-9-27 10 0 0-2 3t-2 5-1 4 0 5 2 1q5 0 6 2t-1 7-2 8q-1 4-6 11t-7 8q-3-5-9-4t-9 5q0-1-1-3t-1-4q-7 0-8 0 1 2 1 10t2 13q1 2 3 6t5 9 2 7-3 5-9 1q-11 0-15-11-1-2-2-6t-2-6-5-4q-4-2-14-1t-13 3q-8 4-13 16t-5 20q0 6 1 15t2 14-3 14q2 1 5 5t5 6q2 1 3 1t2 0 3 1 1 3q0 1-2 2-2 1-2 1 4-1 16 1t15-1q9-6 12 1 0 1-1 6t0 7q3-15 16-5 2-1 9-3t9-2q2-1 4-3t3-3 3 0 5 4q5-8 7-13 6-23 10-25 4-2 6-1t3 5 0 8-1 7l-1 4v11l0 4q-8 2-10 7t0 10 9 10q0 1 4 2t9 4 7 4q12 11 8 20 4 0 6 5 0 0-2 2t-5 2-2 2q5 2 1 8 3 2 4 7t4 5q5-7 12-1 4 5 1 9 2 4 11 6t10 5q4-1 5 1t0 7 2 7q2 2 8 5t8 2l9 7q2 2 0 2 10-1 18 6 5 6-4 11 2 3-2 5t-8 3q2 1 7 1t5 1q9 5-4 9-9 2-24-7-1-1-5-5t-7-6q1 0 2 3t3 6 2 4q3 4 12 8 8 4 29 7 19 5 29-6-1 1 5 7t8 7q2 1 8 2t9 5l1 12q-7-1-10 4t-3 12q0-2-4-5 0 4-2 5t-7-1-5-1q-5 2-8 5t-5 9-2 8q-1 3-5 6t-5 6q-1 1-2 3t-2 4-2 3-3 1-4-3-4-5-2-3q-2 1-4 1t-2-1-3-1-3-2q-1-2-4-2t-5-1q8 3-1 6-5 2-9 2 5 2 5 6t-5 8h3q-1 2-5 5t-10 5-7 3q-5 3-19 5t-18 1q-3-4-3-6t2-8 2-7q1-3-3-7t-3-7q0-4 7-9t6-12q-2-4-9-9t-9-6q-3-5-1-11t6-9q1-1 1-2t-2-3-3-2-4-2l-1-1q-7-3-12 3t-7 15q-4 14-9 17-13 4-17-1-2 7-22 15-14 5-33 2 4 0 0 8-4 9-10 7 1 3 2 10t0 7q2 7 7 13 1 1 4 5t5 7 1 4q19-3 28 6 2 3 6 9t6 10q5 3 8 3t8-3 8-3q8-1 8 6t-4 11q7 0 2 10-3 4-5 5-6 2-15-3-4-2 2-4-1 0-6-6t-9-10-9 3q0 0-3 7t-5 8q-5 0-9-9 1 5-6 9t-14 4q11 7-4 15-4 3-12 3t-11-2q-2-4-3-7t3-4 6-3 6-2 5-2q8-6 5-8-1 0-5-2t-6-2-4-3q-2-2 0-7t-1-8q-3 3-5 10t-4 9q4-5-14-4l-5 1q-3 0-9-1t-12-1-7 5q-3 4 0 11 0 2 2 1-2 2-6 5t-6 5q-25-8-52-23 3 0 6 1 3 1 8 3t5 4q19 7 24 3l3 3q7-9 11-14-4 3-17 1-11-4-12-7 4-7 2-10-2 2-6 6t-8 6-8 3q-9 0-13-1-81-45-131-124z m363-532q0-3 2-9 114 21 195 106-1 2-7 2t-7 2q-10 4-13 5 1 4-1 7t-5 5-7 5-6 4q-1 1-4 3t-4 3-4 2-5 2-5-1l-2-1q-2 0-3-1t-3-2-2-1 0-2q-12 10-20 13-3 0-7 3t-5 4-6 0-6-4q-3-2-4-8t-1-7q-4 3 0 10t1 10q-1 3-6 2t-6-2-7-5-5-3-4-3-5-5q-2-2-4-6t-2-7q-1 3-7 4t-5 3q1-5 2-19t3-22q4-17-7-26-15-14-16-23-2-12 7-14 0-4-5-12t-4-12z" horiz-adv-x="857.1" />
<glyph glyph-name="road" unicode="&#xe80e;" d="m28 34q0 30 14 64l233 583q5 11 15 18t21 8h189q-7 0-13-5t-6-13l-8-107q-1-8 4-13t12-5h93q7 0 12 5t5 13l-9 107q0 7-6 13t-13 5h190q11 0 21-8t14-18l233-583q15-34 15-64 0-41-26-41h-393q7 0 12 5t5 13l-11 143q-1 7-7 12t-12 5h-152q-7 0-13-5t-6-12l-11-143q-1-8 4-13t12-5h-392q-26 0-26 41z m423 260q0-6 5-11t12-4h136q7 0 12 4t4 11v2l-13 179q-1 7-7 13t-12 5h-104q-7 0-13-5t-6-13l-14-179v-2z" horiz-adv-x="1071.4" />
</font>
</defs>
</svg>